"Path","Platform","Compiled","Cooked","Permutations","Compiletime","CompiledDouble","CookedDouble"
"/Engine/EngineMaterials/DefaultTextMaterialOpaque.DefaultTextMaterialOpaque","0","0","38","1","0.000000","0","0"
"/Engine/EngineMaterials/WorldGridMaterial.WorldGridMaterial","0","0","904","1","0.000000","0","0"
"/Engine/EngineMaterials/DefaultDeferredDecalMaterial.DefaultDeferredDecalMaterial","0","0","148","1","0.000000","0","0"
"/Engine/EngineMaterials/DefaultLightFunctionMaterial.DefaultLightFunctionMaterial","0","0","20","1","0.000000","0","0"
"/Engine/EngineMaterials/DefaultPostProcessMaterial.DefaultPostProcessMaterial","0","0","10","1","0.000000","0","0"
"/Engine/EngineMaterials/BaseFlattenMaterial.BaseFlattenMaterial","0","0","51","1","0.000000","0","0"
"/Engine/VREditor/TransformGizmo/Main.Main","0","0","10","1","0.000000","0","0"
"/Engine/VREditor/TransformGizmo/Xray.Xray","0","0","15","1","0.000000","0","0"
"/Engine/EngineMaterials/Widget3DPassThrough.Widget3DPassThrough","0","0","86","6","0.000000","0","0"
"/Game/UI/KeyWidget/M_KeyImage.M_KeyImage","0","0","17","1","0.000000","0","0"
"/Engine/VREditor/TransformGizmo/TransformGizmoMaterial.TransformGizmoMaterial","0","0","4","1","0.000000","0","0"
"/Engine/VREditor/TransformGizmo/TranslucentTransformGizmoMaterial.TranslucentTransformGizmoMaterial","0","0","10","1","0.000000","0","0"
"/Engine/EngineDebugMaterials/WireframeMaterial.WireframeMaterial","0","0","623","1","0.000000","0","0"
"/Engine/EditorMaterials/Camera/CineMat.CineMat","0","0","27","1","0.000000","0","0"
"/Engine/EngineDebugMaterials/M_SimpleUnlitTranslucent.M_SimpleUnlitTranslucent","0","0","10","1","0.000000","0","0"
"/Game/Objects/WorldMeshes/Walls/M_Wallmat.M_Wallmat","0","0","24","1","0.000000","0","0"
"/Game/Foliage/Grass/GrassMaterial.GrassMaterial","0","0","95","1","0.000000","0","0"
"/Game/Objects/GroundMaterial.GroundMaterial","0","0","24","1","0.000000","0","0"
"/Game/Objects/Doors/Materials/M_DoorMat.M_DoorMat","0","0","24","1","0.000000","0","0"
"/Game/Objects/Doors/Materials/M_Keyhole.M_Keyhole","0","0","15","1","0.000000","0","0"
"/Game/Objects/Doors/Materials/M_LockMat.M_LockMat","0","0","15","1","0.000000","0","0"
"/Engine/EngineSky/M_Sky_Panning_Clouds2.M_Sky_Panning_Clouds2","0","0","4","1","0.000000","0","0"
"/Engine/EditorMaterials/PreviewShadowIndicatorMaterial.PreviewShadowIndicatorMaterial","0","0","20","1","0.000000","0","0"
"/Paper2D/DefaultSpriteMaterial.DefaultSpriteMaterial","0","0","66","2","0.000000","0","0"
"/Engine/EngineMaterials/DefaultMaterial.DefaultMaterial","0","0","128","1","0.000000","0","0"
"/Engine/EngineDebugMaterials/M_VolumeRenderSphereTracePP.M_VolumeRenderSphereTracePP","0","0","6","1","0.000000","0","0"
"/OculusVR/Materials/OculusMR_WhiteMaterial.OculusMR_WhiteMaterial","0","0","10","1","0.000000","0","0"
"/OculusVR/Materials/OculusMR_ChromaKey.OculusMR_ChromaKey","0","0","10","1","0.000000","0","0"
"/OculusVR/Materials/OculusMR_ChromaKey_Lit.OculusMR_ChromaKey_Lit","0","0","31","1","0.000000","0","0"
"/OculusVR/Materials/OculusMR_OpaqueColoredMaterial.OculusMR_OpaqueColoredMaterial","0","0","4","1","0.000000","0","0"
"/Engine/EngineMaterials/RemoveSurfaceMaterial.RemoveSurfaceMaterial","0","0","4","1","0.000000","0","0"
"/Engine/EngineDebugMaterials/DebugMeshMaterial.DebugMeshMaterial","0","0","12","1","0.000000","0","0"
"/Engine/EngineMaterials/EmissiveMeshMaterial.EmissiveMeshMaterial","0","0","12","1","0.000000","0","0"
"/Engine/EngineMaterials/M_InvalidLightmapSettings.M_InvalidLightmapSettings","0","0","29","1","0.000000","0","0"
"/Engine/EngineMaterials/GizmoMaterial.GizmoMaterial","0","0","10","1","0.000000","0","0"
"/Engine/EngineMaterials/PhAT_JointLimitMaterial.PhAT_JointLimitMaterial","0","0","20","1","0.000000","0","0"
"/Engine/EngineDebugMaterials/DebugEditorMaterial.DebugEditorMaterial","0","0","10","1","0.000000","0","0"
"/Game/Torch/Materials/Master/Single_Disort_W_Mat.Single_Disort_W_Mat","0","0","195","1","0.000000","0","0"
"/Game/Torch/Materials/Master/Single_Disort_Mat.Single_Disort_Mat","0","0","153","1","0.000000","0","0"
"/Game/Objects/Triggers/Lever/Materials/M_Sides.M_Sides","0","0","15","1","0.000000","0","0"
"/Game/Objects/Triggers/Lever/Materials/M_Hole.M_Hole","0","0","15","1","0.000000","0","0"
"/Game/Objects/Traps/Guillotine/Materials/M_WoodenArm.M_WoodenArm","0","0","15","1","0.000000","0","0"
"/Game/Objects/Traps/Guillotine/Materials/M_Blade.M_Blade","0","0","15","1","0.000000","0","0"
"/Game/Objects/Traps/FloorTrap/Meshes/MTrapBottom.MTrapBottom","0","0","15","1","0.000000","0","0"
"/Game/Objects/Traps/FloorTrap/Meshes/M_Hole.M_Hole","0","0","15","1","0.000000","0","0"
"/Game/Objects/Traps/FloorTrap/Materials/M_TrapBottom.M_TrapBottom","0","0","15","1","0.000000","0","0"
"/Game/Objects/Traps/FloorTrap/Materials/M_pike.M_pike","0","0","15","1","0.000000","0","0"
"/Game/Torch/Materials/Master/LightColor_Mat.LightColor_Mat","0","0","20","1","0.000000","0","0"
"/Game/Objects/Traps/ArrowTrap/Materials/Trap.Trap","0","0","15","1","0.000000","0","0"
"/Game/Objects/Traps/ArrowTrap/Materials/Material.Material","0","0","15","1","0.000000","0","0"
"/Game/Objects/Traps/ArrowTrap/Materials/Tip.Tip","0","0","15","1","0.000000","0","0"
"/Game/Objects/Traps/ArrowTrap/Materials/Arrow1.Arrow1","0","0","15","1","0.000000","0","0"
"/Game/Torch/Materials/Master/Smoke1_Mat.Smoke1_Mat","0","0","115","1","0.000000","0","0"
"/Game/Torch/Materials/Master/Sequence_Mat.Sequence_Mat","0","0","115","1","0.000000","0","0"
"/Game/Torch/Materials/Master/Basic_Emi_Mat.Basic_Emi_Mat","0","0","87","1","0.000000","0","0"
"/Game/Torch/Materials/Master/Distortion_Mat.Distortion_Mat","0","0","38","1","0.000000","0","0"
"/Game/Torch/Demo/Materials/BG_Grid_Mat.BG_Grid_Mat","0","0","120","1","0.000000","0","0"
"/Game/Torch/Materials/Font/Font_mat_Fix.Font_mat_Fix","0","0","38","1","0.000000","0","0"
"/Game/Torch/Demo/Materials/20M.20M","0","0","4","1","0.000000","0","0"
"/Game/Torch/Materials/Master/Smoke_blend_Mat.Smoke_blend_Mat","0","0","87","1","0.000000","0","0"
"/Game/Objects/Triggers/PressurePlate/Meshes/M_Material.M_Material","0","0","15","1","0.000000","0","0"
"/Game/Torch/Materials/Master/Gradient_Mat.Gradient_Mat","0","0","43","1","0.000000","0","0"
"/Game/Torch/Materials/Master/Seq_Disort_Mat_test.Seq_Disort_Mat_test","0","0","153","1","0.000000","0","0"
"/Game/Torch/Props/Materials/Grass_Mat.Grass_Mat","0","0","51","1","0.000000","0","0"
"/Game/Torch/Materials/Master/blackbody_exp_Mat.blackbody_exp_Mat","0","0","87","1","0.000000","0","0"
"/Game/Torch/Materials/Master/Debris_Mat.Debris_Mat","0","0","63","1","0.000000","0","0"
"/Game/Torch/Materials/Master/0_DotCircle_Mat.0_DotCircle_Mat","0","0","26","1","0.000000","0","0"
"/Game/Character/Weapons/M_String.M_String","0","0","15","1","0.000000","0","0"
"/Game/Character/Weapons/M_Bow.M_Bow","0","0","15","1","0.000000","0","0"
